Rplicate Series: How (American) Couples Meet and Stay Together
…
unique(coba$frequency)

#>  [1] 0.0037174721 0.0000000000 0.0038759690 0.0009823183 0.0023041475
#>  [6] 0.0017667845 0.0042735043 0.0034364261 0.0042553191 0.0051813472
#> [11] 0.0128205128

unique(data_hcmst_select)

#> # A tibble: 1,640 x 3
#> # Groups:   year_couple_met [164]
#>    year_couple_met where_couple_met    frequency
#>    <date>          <chr>                   <dbl>
#>  1 1934-02-01      met_through_friends         0
#>  2 1934-02-01      q24_bar_restaurant          0
#>  3 1934-02-01      q24_church                  1
#>  4 1934-02-01      q24_college                 0
#>  5 1934-02-01      q24_customer                0
#>  6 1934-02-01      q24_met_online              0
#>  7 1934-02-01      q24_military                1
#>  8 1934-02-01      q24_R_cowork                0
#>  9 1934-02-01      q24_school                  1
#> 10 1934-02-01      q24_vol_org                 0
#> # ... with 1,630 more rows
